{
  "cards": [
	{
	     "name":"Annoy-o-Tron",
             "minionType": "Mech",
	     "cost":2
	},
	{
		"name": "Antique Healbot",
		"minionType":"Mech",
		"cost":5
	},
	{
		"name": "Mechanical Yeti",
		"minionType":"Mech",
		"cost":4
	},
	{
	    "name":"Abomination",
	    "minionType": "Neutral",
	    "effect": "Taunt",
	    "cost": 5
	},
	{  
		"name":"Acidic Swamp Oooze",
		"effect":"Destroy your opponents weapon",
		"cost": 3
	},
	{
		"name":"Harvest Golem",
		"effect": "Deathrattle: Summon a 2/1 Damaged Golem",
		"cost": 3,
	},
	{	
		"name": "Shattered Sun Cleric",
		"effect": "Battlecry: Give a friendly minion +1/+1",
		"cost":3
	},
        {
		"name":"Dark Iron Dwarf",
		"effect":"Battlecry: Give a minion +2 Attack this turn",
		"cost":4
	},
	{
		"name":"Defender of Argus",
		"effect":"Battlecry: Give adjacent minions +1/+1 and Taunt",
		"cost":4
	},
	{
		"name":"Sen'jin Shieldmasta"
		"effect":"Taunt",
		"cost":4
	},
	{
		"name":"Spellbreaker",
		"effect":"Battlecry: Silence a minion",
		"cost":4
	},
	{
		"name": "Azure Drake",
		"effect":"Spell Damage +1. Battlecry: Draw a card",
		"cost": 5,
		"minionType":"Dragon",
		"set": "Expert"	
	},
	{
		"name":"Argent Commander",
		"effect": "Charge, Divine Shield",
		"cost": 6,
		"set":"Expert"
	}
  ]
}
